#Subamber Succession War
#Organizing the event chain into a more coherent disaster but keeping the general structure the same

sugamber_succession_war = {
	potential = {
		tag = A48
		NOT = { has_country_flag = had_sugamber_succession_war }
		government = monarchy
		is_free_or_tributary_trigger = yes
	}


	can_start = {
		has_any_disaster = no
		current_age = age_of_discovery
		is_at_war = no
		is_lesser_in_union = no
		OR = {
			AND = {
				has_ruler = "Ewald II"
				has_heir = no
			}
			has_ruler = "Lisolette"
		}
	}


	can_stop = {
		OR = {
			AND = {
				has_ruler = "Ewald II"
				has_heir = yes
				heir_claim = 80
			}
			has_any_disaster = yes
			AND = {
				legitimacy = 100
				stability = 3
			}
			is_lesser_in_union = yes
		}
	}


	progress = {
		modifier = {
			factor = 2
			NOT = { legitimacy = 90 }
		}
		modifier = {
			factor = 1
			NOT = { stability = 1 }
		}
		modifier = {
			factor = 1
			overextension_percentage = 0.20
		}
		modifier = {
			factor = 2
			revolt_percentage = 0.10
		}
	}


	can_end = {
		custom_trigger_tooltip = {
			tooltip = sugamber_succession_war_end
			has_country_flag = had_sugamber_succession_war
		}
	}


	modifier = {
		stability_cost_modifier = 0.50
		global_unrest = 5
		war_exhaustion = 0.05
	}


	on_start = flavor_sugamber.1000
	on_end = flavor_sugamber.14


	on_monthly = {
		events = {

		}
		random_events = {
			100 = 0
			5 = flavor_sugamber.6 #Civil war hurts agriculture
			5 = flavor_sugamber.8 #Army deserters
		}
	}
}