#337 - Oran |

owner = A13
controller = A13
add_core = A13
add_core = A51
culture = gawedi
religion = regent_court

hre = no

base_tax = 7
base_production = 6
base_manpower = 4

trade_goods = cloth
center_of_trade = 2

capital = ""

is_city = yes

latent_trade_goods = {
	coal
}









add_permanent_province_modifier = {
	name = elven_minority_coexisting_small
	duration = -1
}

add_permanent_province_modifier = {
	name = half_elven_minority_coexisting_small
	duration = -1
}
