#453 - Qarshi

owner = F06
controller = F06
add_core = F06
culture = desha
religion = mother_akan

hre = no

base_tax = 2
base_production = 2
base_manpower = 2

trade_goods = fish

capital = ""

is_city = yes









