busilar_1 = {
	slot = 1
	generic = no
	ai = yes
	has_country_shield = yes
	
	potential = {
		tag = A29
	}
	
	A29_reclaim_mount_khenak = {
		icon = mission_control_the_desh
		position = 1
		
		trigger = {
			364 = {
				owned_by = ROOT
			}
		}
		
		provinces_to_highlight = {
			OR = {
				province_id = 364
			}
			NOT = {
				country_or_non_sovereign_subject_holds = ROOT
			}
		}
		
		effect = {
			gnollsgate_area = {
				limit = {
					NOT = { is_core = ROOT }
					NOT = { is_permanent_claim = ROOT }
				}
				add_permanent_claim = ROOT
			}
		}
	}
	
	A29_claim_escandar = {
		icon = fight_bosnian_heresies
		position = 3
		
		required_missions = {
			A29_reclaim_mount_khenak
		}
		
		trigger = {
			owns_all_provinces = {
				area = gnollsgate_area
			}
		}
		
		provinces_to_highlight = {
			OR = {
				province_id = 316
				province_id = 317
				province_id = 913
			}
			NOT = {
				country_or_non_sovereign_subject_holds = ROOT
			}
		}
		
		effect = {
			hawkfields_area = {
				limit = {
					NOT = { is_core = ROOT }
					NOT = { is_permanent_claim = ROOT }
				}
				add_permanent_claim = ROOT
			}
			rhinmond_area = {
				limit = {
					NOT = { is_core = ROOT }
					NOT = { is_permanent_claim = ROOT }
				}
				add_permanent_claim = ROOT
			}
		}
	}
	
	A29_expand_our_coastline = {
		icon = dalmatian_conquest
		position = 4
		
		required_missions = {
			A29_claim_escandar
		}
		
		trigger = {
			owns_all_provinces = {
				area = hawkfields_area
			}
		}
		
		provinces_to_highlight = {
			OR = {
				province_id = 409
				province_id = 410
				province_id = 411
			}
			NOT = {
				country_or_non_sovereign_subject_holds = ROOT
			}
		}
		
		effect = {
			antir_drop_area = {
				limit = {
					NOT = { is_core = ROOT }
					NOT = { is_permanent_claim = ROOT }
				}
				add_permanent_claim = ROOT
			}
			highcliff_area = {
				limit = {
					NOT = { is_core = ROOT }
					NOT = { is_permanent_claim = ROOT }
				}
				add_permanent_claim = ROOT
			}
		}
	}
	
	A29_the_imperial_flooded_coast = {
		icon = develop_provence
		position = 5
		
		required_missions = {
			A29_expand_our_coastline
		}
		
		trigger = {
			AND = {
				owns_all_provinces = {
					area = antir_drop_area
				}
				owns_all_provinces = {
					area = highcliff_area
				}
			}
		}
		
		provinces_to_highlight = {
			OR = {
				area = antir_drop_area
				area = highcliff_area
			}
			NOT = {
				country_or_non_sovereign_subject_holds = ROOT
			}
		}
		
		effect = {
			if = {
				limit = { 
					451 = {
						NOT = { is_core = ROOT }
						NOT = { is_permanent_claim = ROOT }
					}
				}
				451 = {
					add_permanent_claim = ROOT
				}
			}
		}
	}
}

busilar_2 = {
	slot = 2
	generic = no
	ai = yes
	has_country_shield = yes
	
	potential = {
		tag = A29
	}
	
	A29_reinforce_the_khenak = {
		icon = alpine_defenses
		position = 2
		
		required_missions = {
			A29_reclaim_mount_khenak
		}
		
		trigger = {
			AND = {
				treasury = 100
				364 = {
					AND = {
						has_building = fort_15th
						development = 10
					}
				}
			}
		}
		
		effect = {
			add_treasury = -100
			364 = {
				add_province_modifier = {
					name = busilar_khenak_fortifications
					desc = busilar_khenak_fortifications_tooltip
					duration = -1
				}
			}
		}
	}
	
	A29_revitalize_the_copper_mines = {
		icon = mission_rb_central_belt_coal_mining
		position = 3
		
		required_missions = {
			A29_reinforce_the_khenak
		}
		
		trigger = {
			AND = {
				364 = {
					AND = {
						has_building = workshop
						development = 15
					}
				}
				371 = {
					AND = {
						has_building = workshop
						development = 15
					}
				}
				367 = {
					AND = {
						has_building = workshop
						development = 15
					}
				}
			}
		}
		
		effect = {
			364 = {
				add_province_modifier = {
					name = busilar_busilari_copper_mines
					desc = busilar_busilari_copper_mines_tooltip
					duration = -1
				}
			}
			367 = {
				add_province_modifier = {
					name = busilar_busilari_copper_mines
					desc = busilar_busilari_copper_mines_tooltip
					duration = -1
				}
			}
			371 = {
				add_province_modifier = {
					name = busilar_busilari_copper_mines
					desc = busilar_busilari_copper_mines_tooltip
					duration = -1
				}
			}
		}
	}
	
	A29_rhinmond_area = {
		icon = the_hundred_years_war
		position = 4
		
		required_missions = {
			A29_claim_escandar
		}
		
		trigger = {
			owns_all_provinces = {
				area = rhinmond_area
			}
		}
		
		provinces_to_highlight = {
			OR = {
				province_id = 414
				province_id = 415
				province_id = 417
				province_id = 919
			}
			NOT = {
				country_or_non_sovereign_subject_holds = ROOT
			}
		}
		
		effect = {
			arannen_area = {
				limit = {
					NOT = { is_core = ROOT }
					NOT = { is_permanent_claim = ROOT }
				}
				add_permanent_claim = ROOT
			}
		}
	}
	
	A29_arannen_area = {
		icon = consolidate_the_stadholders
		position = 8
		
		required_missions = {
			A29_rhinmond_area
		}
		
		trigger = {
			owns_all_provinces = {
				area = arannen_area
			}
		}
		
		provinces_to_highlight = {
			OR = {
				province_id = 325
				province_id = 904
				province_id = 418
				province_id = 419
				province_id = 313
			}
			NOT = {
				country_or_non_sovereign_subject_holds = ROOT
			}
		}
		
		effect = {
			904 = {
				add_province_modifier = {
					name = busilar_busilari_stone_lion
					desc = busilar_busilari_stone_lion_tooltip
					duration = -1
				}
			}
		}
	}
}

busilar_3 = {
	slot = 3
	generic = no
	ai = yes
	has_country_shield = yes
	
	potential = {
		tag = A29
	}
	
	A29_modernize_the_busilari_arsenal = {
		icon = mission_dominate_genoa
		position = 4
		
		required_missions = {
			A29_revitalize_the_copper_mines
			A29_expand_port_jaher
		}
		
		trigger = {
			365 = {
				AND = {
					development = 35
					has_building = drydock
					has_building = grand_shipyard
				}
			}
		}
		
		effect = {
			365 = {
				add_province_modifier = {
					name = busilar_modern_busilari_arsenal
					desc = busilar_modern_busilari_arsenal_tooltip
					duration = -1
				}
			}
		}
	}
	
	A29_reuniting_with_our_brothers = {
		icon = mission_break_sicily
		position = 5
		
		required_missions = {
			A29_rebuild_the_lion_armada
		}
		
		provinces_to_highlight = {
			OR = {
				province_id = 452
				province_id = 516
				province_id = 517
				province_id = 518
				province_id = 519
			}
			NOT = {
				country_or_non_sovereign_subject_holds = ROOT
			}
		}
		
		trigger = {
			OR = {
				owns_all_provinces = {
					area = crathanor_area
				}
				F17 = {
					is_subject_of = A29
				}
			}
		}
		
		effect = {
			reuyel_area = {
				limit = {
					NOT = { is_core = ROOT }
					NOT = { is_permanent_claim = ROOT }
				}
				add_permanent_claim = ROOT
			}
			medbahar_area = {
				limit = {
					NOT = { is_core = ROOT }
					NOT = { is_permanent_claim = ROOT }
				}
				add_permanent_claim = ROOT
			}
		}
	}
	
	A29_expanding_into_the_east = {
		icon = mission_arabian_fort
		position = 6
		
		required_missions = {
			A29_reuniting_with_our_brothers
		}
		
		provinces_to_highlight = {
			OR = {
				province_id = 521
				province_id = 522
				province_id = 523
				province_id = 581
				province_id = 520
				province_id = 528
				province_id = 529
			}
			NOT = {
				country_or_non_sovereign_subject_holds = ROOT
			}
		}
		
		trigger = {
			AND = {
				owns_all_provinces = {
					area = reuyel_area
				}
				owns_all_provinces = {
					area = medbahar_area
				}
			}
		}
		
		effect = {
			if = {
				limit = {
					exists = F23
				}
				add_casus_belli = {
					target = F23
					type = cb_vassalize_mission
				}
			}
			else = {
				tungr_mountains_area = {
					limit = {
						NOT = { is_core = ROOT }
						NOT = { is_permanent_claim = ROOT }
					}
					add_permanent_claim = ROOT
				}
			}
		}
	}
	
	A29_the_copper_dwarves = {
		icon = mission_fortify_rajputana
		position = 7
		
		required_missions = {
			A29_expanding_into_the_east
		}
		
		provinces_to_highlight = {
			OR = {
				province_id = 525
				province_id = 526
				province_id = 527
			}
			NOT = {
				country_or_non_sovereign_subject_holds = ROOT
			}
		}
		
		trigger = {
			AND = {
				525 = {
					country_or_non_sovereign_subject_holds = ROOT
				}
				526 = {
					country_or_non_sovereign_subject_holds = ROOT
				}
				527 = {
					country_or_non_sovereign_subject_holds = ROOT
				}
			}
		}
		
		effect = {
			if = {
				limit = {
					exists = F23
				}
				527 = {
					change_culture = copper_dwarf
					change_religion = ancestor_worship
				}
				527 = {
					cede_province = F23
				}
			}
			else = {
				add_accepted_culture = copper_dwarf
			}
		}
	}
	
	A29_westend_pillar = {
		icon = mission_break_sicily
		position = 8
		
		required_missions = {
			A29_the_copper_dwarves
		}
		
		trigger = {
			treasury = 500
		}
		
		effect = {
			516 = {
				center_of_trade = 1
			}
			516 = {
				add_province_modifier = {
					name = busilar_busilari_stone_lion
					desc = busilar_busilari_stone_lion_tooltip
					duration = -1
				}
			}
		}
	}
	
	A29_the_stone_lions_of_busilar = {
		icon = mission_break_sicily
		position = 9
		
		required_missions = {
			A29_arannen_area
			A29_westend_pillar
			A29_deshak_area
		}
		
		effect = {
			set_government_rank = 3
			add_country_modifier = {
				name = busilar_the_stone_lions_of_busilar
				duration = -1
			}
		}
	}
	
	A29_the_gnolls_defeated = {
		icon = mission_break_sicily
		position = 11
		
		required_missions = {
			A29_push_onward
		}
		
		trigger = {
			owns_all_provinces = {
				trade_company_region = trade_company_akan
				culture = west_sandfang_gnoll
				NOT = {
					province_id = 6093
					province_id = 6094
					province_id = 6095
				}
			}
		}
		
		effect = {
			390 = {
				change_culture = far_akani
				change_religion = regent_court
				add_devastation = 10
			}
			393 = {
				change_culture = far_akani
				change_religion = regent_court
				add_devastation = 10
			}
			392 = {
				change_culture = far_akani
				change_religion = regent_court
				add_devastation = 10
			}
			401 = {
				change_culture = far_akani
				change_religion = regent_court
				add_devastation = 10
			}
			385 = {
				change_culture = far_akani
				change_religion = regent_court
				add_devastation = 10
			}
			384 = {
				change_culture = far_akani
				change_religion = regent_court
				add_devastation = 10
			}
			398 = {
				change_culture = desha
				change_religion = regent_court
				add_devastation = 10
			}
			396 = {
				change_culture = desha
				change_religion = regent_court
				add_devastation = 10
			}
			395 = {
				change_culture = desha
				change_religion = regent_court
				add_devastation = 10
			}
			6091 = {
				change_culture = desha
				change_religion = regent_court
				add_devastation = 10
			}
			6092 = {
				change_culture = desha
				change_religion = regent_court
				add_devastation = 10
			}
		}
	}
}

busilar_4 = {
	slot = 4
	generic = no
	ai = yes
	has_country_shield = yes
	
	potential = {
		tag = A29
	}
	
	A29_restabilize_the_country = {
		icon = mission_break_sicily
		position = 2
		
		trigger = {
			AND = {
				stability = 2
				num_of_owned_provinces_with = {
					value = 0
					devastation = 1
				}
			}
		}
		
		effect = {
			add_country_modifier = {
				name = busilar_reconstruction
				duration = 3650
			}
		}
	}
	
	A29_expand_port_jaher = {
		icon = mission_break_sicily
		position = 3
		
		required_missions = {
			A29_restabilize_the_country
		}
		
		trigger = {
			365 = {
				AND = {
					development = 25
					has_building = dock
					has_building = shipyard
				}
			}
		}
		
		effect = {
			365 = {
				add_province_modifier = {
					name = busilar_expanded_port
					desc = busilar_expanded_port_tooltip
					duration = -1
				}
				add_province_modifier = {
					name = busilar_colonial_port
					desc = busilar_colonial_port_tooltip
					duration = 3650
				}
			}
		}
	}
	
	A29_rebuild_the_lion_armada = {
		icon = mission_break_sicily
		position = 4
		
		required_missions = {
			A29_expand_port_jaher
		}
		
		trigger = {
			navy_size_percentage = 0.90
		}
		
		effect = {
			if = {
				limit = {
					exists = F17
				}
				add_casus_belli = {
					target = F17
					type = cb_vassalize_mission
				}
			}
			else = {
				crathanor_area = {
					limit = {
						NOT = { is_core = ROOT }
						NOT = { is_permanent_claim = ROOT }
					}
					add_permanent_claim = ROOT
				}
			}	
		}
	}
	
	A29_prepare_for_our_revenge = {
		icon = mission_break_sicily
		position = 5
		
		required_missions = {
			A29_rebuild_the_lion_armada
		}
		
		trigger = {
			num_of_owned_provinces_with = {
				value = 5
				base_manpower = 5
				has_building = barracks
			}
		}
		
		effect = {
			isle_of_tef_area = {
					limit = {
						NOT = { is_core = ROOT }
						NOT = { is_permanent_claim = ROOT }
					}
					add_permanent_claim = ROOT
			}
		}
	}
	
	A29_the_isle_of_tef = {
		icon = mission_break_sicily
		position = 6
		
		required_missions = {
			A29_prepare_for_our_revenge
		}
		
		trigger = {
			AND = {
				380 = {
					country_or_non_sovereign_subject_holds = ROOT
				}
				369 = {
					country_or_non_sovereign_subject_holds = ROOT
				}
				35 = {
					country_or_non_sovereign_subject_holds = ROOT
				}
				379 = {
					country_or_non_sovereign_subject_holds = ROOT
				}
				36 = {
					country_or_non_sovereign_subject_holds = ROOT
				}
			}
		}
		
		provinces_to_highlight = {
			OR = {
				province_id = 380
				province_id = 369
				province_id = 35
				province_id = 379
				province_id = 36
			}
			NOT = {	
				country_or_non_sovereign_subject_holds = ROOT
			}
		}
		
		effect = {
			if = {
				limit = {
					exists = F06
				}
				add_casus_belli = {
					target = F06
					type = cb_vassalize_mission
				}
			}
			else = {
				deshak_area = {
					limit = {
						NOT = { is_core = ROOT }
						NOT = { is_permanent_claim = ROOT }
					}
					add_permanent_claim = ROOT
				}
			}
		}
	}
	
	A29_deshak_area = {
		icon = mission_break_sicily
		position = 8
		
		required_missions = {
			A29_the_isle_of_tef
		}
		
		trigger = {
			owns_all_provinces = {
				area = deshak_area
			}
		}
		
		provinces_to_highlight = {
			OR = {
				province_id = 404
				province_id = 381
				province_id = 405
				province_id = 382
				province_id = 403
			}
			NOT = {
				country_or_non_sovereign_subject_holds = ROOT
			}
		}
		
		effect = {
			382 = {
				add_province_modifier = {
					name = busilar_busilari_stone_lion
					desc = busilar_busilari_stone_lion_tooltip
					duration = -1
				}
			}
		}
	}
	
	A29_surpass_the_gnolls = {
		icon = mission_break_sicily
		position = 9
		
		required_missions = {
			A29_deshak_area
		}
		
		trigger = {
			AND = {
				army_size = F07
				navy_size = F07
			}	
		}
		
		effect = {
			middle_akan_area = {
					limit = {
						NOT = { is_core = ROOT }
						NOT = { is_permanent_claim = ROOT }
					}
					add_permanent_claim = ROOT
				}
			akan_mountains_area = {
					limit = {
						NOT = { is_core = ROOT }
						NOT = { is_permanent_claim = ROOT }
					}
					add_permanent_claim = ROOT
			}
		}
	}
	
	A29_push_onward = {
		icon = mission_break_sicily
		position = 10
		
		required_missions = {
			A29_surpass_the_gnolls
		}
		
		trigger = {
			owns_all_provinces = {
				OR = {
					area = middle_akan_area
					area = akan_mountains_area
				}
			}
		}
		
		provinces_to_highlight = {
			OR = {
				province_id = 400
				province_id = 384
				province_id = 385
				province_id = 383
				province_id = 401
				province_id = 395
				province_id = 396
			}
			NOT = {
				country_or_non_sovereign_subject_holds = ROOT
			}
		}
		
		effect = {
			ekha_area = {
					limit = {
						NOT = { is_core = ROOT }
						NOT = { is_permanent_claim = ROOT }
					}
					add_permanent_claim = ROOT
			}
			akarat_area = {
					limit = {
						NOT = { is_core = ROOT }
						NOT = { is_permanent_claim = ROOT }
					}
					add_permanent_claim = ROOT
			}
			akan_isles_area = {
					limit = {
						NOT = { is_core = ROOT }
						NOT = { is_permanent_claim = ROOT }
					}
					add_permanent_claim = ROOT
			}
			coastal_krahway_area = {
					limit = {
						NOT = { is_core = ROOT }
						NOT = { is_permanent_claim = ROOT }
					}
					add_permanent_claim = ROOT
			}
			salahad_islands_area = {
					limit = {
						NOT = { is_core = ROOT }
						NOT = { is_permanent_claim = ROOT }
					}
					add_permanent_claim = ROOT
			}
			if = {
				limit = { 
					397 = {
						NOT = { is_core = ROOT }
						NOT = { is_permanent_claim = ROOT }
					}
				}
				397 = {
					add_permanent_claim = ROOT
				}
			}
		}
	}
	
	A29_colonial_leechdens = {
		icon = mission_break_sicily
		position = 11
		
		required_missions = {
			A29_a_western_outpost
		}
		
		trigger = {
			num_of_provinces_owned_or_owned_by_non_sovereign_subjects_with = {
				value = 10
				colonial_region = colonial_leechden
				is_city = yes
			}
		}
		
		effect = {
			add_country_modifier = {
				name = busilar_colonial_offices
				duration = 5475
			}
		}
	}
	
	A29_nur_hapaine = {
		icon = mission_break_sicily
		position = 12
		
		required_missions = {
			A29_colonial_leechdens
		}
		
		trigger = {
			num_of_provinces_owned_or_owned_by_non_sovereign_subjects_with = {
				value = 10
				colonial_region = colonial_lai_peninsula
				is_city = yes
			}
		}
		
		effect = {
			add_country_modifier = {
				name = busilar_colonial_offices
				duration = 5475
			}
		}
	}
}

busilar_5 = {
	slot = 5
	generic = no
	ai = yes
	has_country_shield = yes
	
	potential = {
		tag = A29
	}
	
	A29_wander_to_aelantir = {
		icon = mission_break_sicily
		position = 4
		
		required_missions = {
			A29_expand_port_jaher
		}
		
		trigger = {
			has_discovered = 928
		}
		
		effect = {
			add_country_modifier = {
				name = busilar_exploration_of_aelantir
				duration = 7300
			}
		}
	}
	
	A29_a_western_outpost = {
		icon = mission_break_sicily
		position = 10
		
		required_missions = {
			A29_wander_to_aelantir
		}
		
		trigger = {
			num_of_provinces_owned_or_owned_by_non_sovereign_subjects_with = {
				value = 10
				colonial_region = colonial_endralliande
				is_city = yes
			}
		}
		
		effect = {
			add_country_modifier = {
				name = busilar_colonial_offices
				duration = 5475
			}
		}
	}

	A29_colonial_isles = {
		icon = mission_break_sicily
		position = 11
		
		required_missions = {
			A29_a_western_outpost
		}
		
		trigger = {
			num_of_provinces_owned_or_owned_by_non_sovereign_subjects_with = {
				value = 10
				colonial_region = colonial_isles
				is_city = yes
			}
		}
		
		effect = {
			add_country_modifier = {
				name = busilar_colonial_offices
				duration = 5475
			}
		}
	}
	
	A29_nur_lorbet = {
		icon = mission_break_sicily
		position = 12
		
		required_missions = {
			A29_colonial_isles
		}
		
		trigger = {
			num_of_provinces_owned_or_owned_by_non_sovereign_subjects_with = {
				value = 10
				colonial_region = colonial_soruin
				is_city = yes
			}
		}
		
		effect = {
			add_country_modifier = {
				name = busilar_colonial_offices
				duration = 5475
			}
		}
	}
	
	A29_nur_busilar = {
		icon = mission_break_sicily
		position = 13
		
		required_missions = {
			A29_nur_lorbet
		}
		
		trigger = {
			num_of_provinces_owned_or_owned_by_non_sovereign_subjects_with = {
				value = 10
				colonial_region = colonial_amadia
				is_city = yes
			}
		}
		
		effect = {
			add_country_modifier = {
				name = busilar_colonial_offices
				duration = 5475
			}
		}
	}
}
