g_greedy_grin_column_4 = {
	slot = 4
	generic = no
	ai = yes
	potential = {
		tag = H82
	}
	has_country_shield = yes

    g_the_despoilers_of_hehodovar = {
		icon = mission_fortify_rajputana
		position = 1
		required_missions = {

		}
		trigger = {
			treasury = 80
		}
		
		effect = {
			add_treasury = -30
			add_prestige = 30
		}
	}
	g_despoiling_seghdihr = {
		icon = mission_fortify_rajputana
		position = 2
		required_missions = {
			g_the_despoilers_of_hehodovar
		}
		trigger = {
			controls = 4124
		}
		
		effect = {
			4124 = {
				add_devastation = 100
			}
			country_event = { 
				id = cavegoblinflavor.5
				days = 0
			}
		}
	}
	g_coin_collecting = {
		icon = mission_fortify_rajputana
		position = 3
		required_missions = {
			g_despoiling_seghdihr
		}
		trigger = {
			treasury = 650
		}
		
		effect = {
			2914 = {
				every_core_country = {
					every_owned_province = {
						add_permanent_claim = FROM
					}
				}
			}
		}
	}
	g_the_hold_of_gold = {
		icon = mission_fortify_rajputana
		position = 4
		required_missions = {
			g_coin_collecting
		}
		trigger = {	
			owns = 2914
		}
		
		effect = {
			add_years_of_income = 1
			set_capital = 2914
		}
	}
	g_the_coin_filled_mountains = {
		icon = mission_fortify_rajputana
		position = 5
		required_missions = {
			g_the_hold_of_gold
		}
		trigger = {
			treasury = 3000
		}
		
		effect = {
			add_country_modifier = {
				name = cave_goblin_greedy_grin
				duration = -1
			}
			swap_free_idea_group = yes
			override_country_name = BLOKROKLAN # Treasure Clan
		}
	}
}


#these trees show up during the allclan civil war. Replaces generic resurce missions and special warband ones
g_greedy_grin_civil_war_region_column_4 = { #involves doing stuff with their spawn area
	slot = 4
	generic = no
	ai = yes
	potential = {
		tag = H82
		has_country_modifier = allclan_split
	}
	has_country_shield = yes

    g_establishing_our_clan = {
		icon = mission_fortify_rajputana
		position = 1
		required_missions = {

		}
		trigger = {

		}
		
		effect = {
			
		}
	}
}
g_greedy_grin_civil_war_column_5 = {
	slot = 5
	generic = no
	ai = yes
	potential = {
		tag = H82
		has_country_modifier = allclan_split
	}
	has_country_shield = yes

    g_the_great_kinstrife = {
		icon = mission_fortify_rajputana
		position = 1
		required_missions = {

		}
		trigger = {
			OR = {
				has_country_modifier = allclan_split
			}	
		}
		
		effect = {
			create_general = {
				tradition = 100
				#add_siege = -1
			}
			override_country_name = BLOKROKLAN # Treasure Clan
			swap_free_idea_group = yes
		}
	}
}